processors/class05_Jump/class05_activity01/simulation/qsim/class05_activity01.msim.vcd
$comment
	File created using the following command:
		vcd file class05_activity01.msim.vcd -direction
$end
$date
	Sun Oct 15 10:40:41 2023
$end
$version
	ModelSim Version 2020.1
$end
$timescale
	1ps
$end

$scope module toplevel_vhd_vec_tst $end
$var wire 1 ! CLOCK_50 $end
$var wire 1 " KEY [3] $end
$var wire 1 # KEY [2] $end
$var wire 1 $ KEY [1] $end
$var wire 1 % KEY [0] $end
$var wire 1 & Palavra_Controle [6] $end
$var wire 1 ' Palavra_Controle [5] $end
$var wire 1 ( Palavra_Controle [4] $end
$var wire 1 ) Palavra_Controle [3] $end
$var wire 1 * Palavra_Controle [2] $end
$var wire 1 + Palavra_Controle [1] $end
$var wire 1 , Palavra_Controle [0] $end
$var wire 1 - PC_OUT [8] $end
$var wire 1 . PC_OUT [7] $end
$var wire 1 / PC_OUT [6] $end
$var wire 1 0 PC_OUT [5] $end
$var wire 1 1 PC_OUT [4] $end
$var wire 1 2 PC_OUT [3] $end
$var wire 1 3 PC_OUT [2] $end
$var wire 1 4 PC_OUT [1] $end
$var wire 1 5 PC_OUT [0] $end

$scope module i1 $end
$var wire 1 6 gnd $end
$var wire 1 7 vcc $end
$var wire 1 8 unknown $end
$var wire 1 9 devoe $end
$var wire 1 : devclrn $end
$var wire 1 ; devpor $end
$var wire 1 < ww_devoe $end
$var wire 1 = ww_devclrn $end
$var wire 1 > ww_devpor $end
$var wire 1 ? ww_CLOCK_50 $end
$var wire 1 @ ww_KEY [3] $end
$var wire 1 A ww_KEY [2] $end
$var wire 1 B ww_KEY [1] $end
$var wire 1 C ww_KEY [0] $end
$var wire 1 D ww_PC_OUT [8] $end
$var wire 1 E ww_PC_OUT [7] $end
$var wire 1 F ww_PC_OUT [6] $end
$var wire 1 G ww_PC_OUT [5] $end
$var wire 1 H ww_PC_OUT [4] $end
$var wire 1 I ww_PC_OUT [3] $end
$var wire 1 J ww_PC_OUT [2] $end
$var wire 1 K ww_PC_OUT [1] $end
$var wire 1 L ww_PC_OUT [0] $end
$var wire 1 M ww_Palavra_Controle [6] $end
$var wire 1 N ww_Palavra_Controle [5] $end
$var wire 1 O ww_Palavra_Controle [4] $end
$var wire 1 P ww_Palavra_Controle [3] $end
$var wire 1 Q ww_Palavra_Controle [2] $end
$var wire 1 R ww_Palavra_Controle [1] $end
$var wire 1 S ww_Palavra_Controle [0] $end
$var wire 1 T \CLOCK_50~input_o\ $end
$var wire 1 U \KEY[1]~input_o\ $end
$var wire 1 V \KEY[2]~input_o\ $end
$var wire 1 W \KEY[3]~input_o\ $end
$var wire 1 X \KEY[0]~input_o\ $end
$var wire 1 Y \KEY[0]~inputCLKENA0_outclk\ $end
$var wire 1 Z \incrementaPC|Add0~2\ $end
$var wire 1 [ \incrementaPC|Add0~6\ $end
$var wire 1 \ \incrementaPC|Add0~9_sumout\ $end
$var wire 1 ] \incrementaPC|Add0~14\ $end
$var wire 1 ^ \incrementaPC|Add0~17_sumout\ $end
$var wire 1 _ \~GND~combout\ $end
$var wire 1 ` \PC|DOUT[2]~DUPLICATE_q\ $end
$var wire 1 a \incrementaPC|Add0~30\ $end
$var wire 1 b \incrementaPC|Add0~33_sumout\ $end
$var wire 1 c \ROM|memROM~5_combout\ $end
$var wire 1 d \ROM|memROM~6_combout\ $end
$var wire 1 e \ROM|memROM~1_combout\ $end
$var wire 1 f \incrementaPC|Add0~18\ $end
$var wire 1 g \incrementaPC|Add0~21_sumout\ $end
$var wire 1 h \incrementaPC|Add0~22\ $end
$var wire 1 i \incrementaPC|Add0~25_sumout\ $end
$var wire 1 j \incrementaPC|Add0~26\ $end
$var wire 1 k \incrementaPC|Add0~29_sumout\ $end
$var wire 1 l \ROM|memROM~0_combout\ $end
$var wire 1 m \ROM|memROM~4_combout\ $end
$var wire 1 n \incrementaPC|Add0~10\ $end
$var wire 1 o \incrementaPC|Add0~13_sumout\ $end
$var wire 1 p \ROM|memROM~3_combout\ $end
$var wire 1 q \incrementaPC|Add0~5_sumout\ $end
$var wire 1 r \PC|DOUT[1]~DUPLICATE_q\ $end
$var wire 1 s \ROM|memROM~2_combout\ $end
$var wire 1 t \incrementaPC|Add0~1_sumout\ $end
$var wire 1 u \PC|DOUT[0]~DUPLICATE_q\ $end
$var wire 1 v \PC|DOUT[6]~DUPLICATE_q\ $end
$var wire 1 w \PC|DOUT[8]~DUPLICATE_q\ $end
$var wire 1 x \PC|DOUT\ [8] $end
$var wire 1 y \PC|DOUT\ [7] $end
$var wire 1 z \PC|DOUT\ [6] $end
$var wire 1 { \PC|DOUT\ [5] $end
$var wire 1 | \PC|DOUT\ [4] $end
$var wire 1 } \PC|DOUT\ [3] $end
$var wire 1 ~ \PC|DOUT\ [2] $end
$var wire 1 !! \PC|DOUT\ [1] $end
$var wire 1 "! \PC|DOUT\ [0] $end
$var wire 1 #! \PC|ALT_INV_DOUT\ [8] $end
$var wire 1 $! \PC|ALT_INV_DOUT\ [7] $end
$var wire 1 %! \PC|ALT_INV_DOUT\ [6] $end
$var wire 1 &! \PC|ALT_INV_DOUT\ [5] $end
$var wire 1 '! \PC|ALT_INV_DOUT\ [4] $end
$var wire 1 (! \PC|ALT_INV_DOUT\ [3] $end
$var wire 1 )! \PC|ALT_INV_DOUT\ [2] $end
$var wire 1 *! \PC|ALT_INV_DOUT\ [1] $end
$var wire 1 +! \PC|ALT_INV_DOUT\ [0] $end
$var wire 1 ,! \ROM|ALT_INV_memROM~0_combout\ $end
$var wire 1 -! \ROM|ALT_INV_memROM~6_combout\ $end
$var wire 1 .! \PC|ALT_INV_DOUT[2]~DUPLICATE_q\ $end
$var wire 1 /! \PC|ALT_INV_DOUT[1]~DUPLICATE_q\ $end
$var wire 1 0! \PC|ALT_INV_DOUT[0]~DUPLICATE_q\ $end
$upscope $end
$upscope $end
$enddefinitions $end
#0
$dumpvars
x!
06
17
x8
19
1:
1;
1<
1=
1>
x?
xT
xU
xV
xW
1X
1Y
0Z
0[
0\
0]
0^
0_
0`
0a
0b
0c
1d
1e
0f
0g
0h
0i
0j
0k
1l
1m
0n
0o
0p
0q
0r
0s
1t
0u
0v
0w
0,!
0-!
1.!
1/!
10!
x"
x#
x$
1%
x@
xA
xB
1C
0D
0E
0F
0G
0H
0I
0J
0K
0L
1M
0N
0O
0P
0Q
0R
0S
0x
0y
0z
0{
0|
0}
0~
0!!
0"!
1#!
1$!
1%!
1&!
1'!
1(!
1)!
1*!
1+!
1&
0'
0(
0)
0*
0+
0,
0-
0.
0/
00
01
02
03
04
05
$end
#10000
0%
0C
0X
0Y
#20000
1%
1C
1X
1Y
1`
1~
0)!
0.!
1\
1c
0m
1s
1J
13
#30000
0%
0C
0X
0Y
#40000
1%
1C
1X
1Y
0`
1x
0~
1"!
1u
1w
00!
0+!
1)!
0#!
1.!
1b
0d
0l
0\
0t
1Z
1m
1,!
1-!
1D
1L
0J
1q
0e
0c
0m
0s
15
03
1-
0M
0&
#50000
0%
0C
0X
0Y
#60000
1%
1C
1X
1Y
1!!
1r
0"!
0u
10!
1+!
0/!
0*!
0q
1[
1t
0Z
0L
1K
1q
0[
1\
05
14
0\
#70000
0%
0C
0X
0Y
#80000
1%
1C
1X
1Y
1"!
1u
00!
0+!
0t
1Z
1L
0q
1[
15
1\
#90000
0%
0C
0X
0Y
#100000
1%
1C
1X
1Y
1`
1~
0!!
0r
0"!
0u
10!
1+!
1/!
1*!
0)!
0.!
0\
1n
1q
0[
1t
0Z
0L
0K
1J
0q
1\
0n
1o
05
04
13
0o
#110000
0%
0C
0X
0Y
#120000
1%
1C
1X
1Y
1"!
1u
00!
0+!
0t
1Z
1L
1q
15
#130000
0%
0C
0X
0Y
#140000
1%
1C
1X
1Y
1!!
1r
0"!
0u
10!
1+!
0/!
0*!
0q
1[
1t
0Z
0L
1K
1q
0[
0\
1n
05
14
1o
1\
0n
0o
#150000
0%
0C
0X
0Y
#160000
1%
1C
1X
1Y
1"!
1u
00!
0+!
0t
1Z
1L
0q
1[
15
0\
1n
1o
#170000
0%
0C
0X
0Y
#180000
1%
1C
1X
1Y
0`
0~
1}
0!!
0r
0"!
0u
10!
1+!
1/!
1*!
0(!
1)!
1.!
1\
0n
0o
1]
1q
0[
1t
0Z
0L
0K
1I
0J
0q
0\
1^
1o
0]
05
04
03
12
0^
#190000
0%
0C
0X
0Y
#200000
1%
1C
1X
1Y
1"!
1u
00!
0+!
0t
1Z
1L
1q
15
#210000
0%
0C
0X
0Y
#220000
1%
1C
1X
1Y
1!!
1r
0"!
0u
10!
1+!
0/!
0*!
0q
1[
1t
0Z
0L
1K
1q
0[
1\
05
14
0\
#230000
0%
0C
0X
0Y
#240000
1%
1C
1X
1Y
1"!
1u
00!
0+!
0t
1Z
1L
0q
1[
15
1\
#250000
0%
0C
0X
0Y
#260000
1%
1C
1X
1Y
1`
1~
0!!
0r
0"!
0u
10!
1+!
1/!
1*!
0)!
0.!
0\
1n
1q
0[
1t
0Z
0L
0K
1J
0q
1\
0n
0o
1]
05
04
13
1^
1o
0]
0^
#270000
0%
0C
0X
0Y
#280000
1%
1C
1X
1Y
1"!
1u
00!
0+!
0t
1Z
1L
1q
15
#290000
0%
0C
0X
0Y
#300000
1%
1C
1X
1Y
1!!
1r
0"!
0u
10!
1+!
0/!
0*!
0q
1[
1t
0Z
0L
1K
1q
0[
0\
1n
05
14
0o
1]
1\
0n
1o
0]
1^
0^
#310000
0%
0C
0X
0Y
#320000
1%
1C
1X
1Y
1"!
1u
00!
0+!
0t
1Z
1L
0q
1[
15
0\
1n
0o
1]
1^
#330000
0%
0C
0X
0Y
#340000
1%
1C
1X
1Y
0`
1|
0~
0}
0!!
0r
0"!
0u
10!
1+!
1/!
1*!
1(!
1)!
0'!
1.!
0^
1f
1\
0n
1o
0]
1q
0[
1t
0Z
0L
0K
0I
1H
0J
0q
0\
1^
0f
0o
1g
05
04
03
02
11
0g
#350000
0%
0C
0X
0Y
#360000
1%
1C
1X
1Y
1"!
1u
00!
0+!
0t
1Z
1L
1q
15
#370000
0%
0C
0X
0Y
#380000
1%
1C
1X
1Y
1!!
1r
0"!
0u
10!
1+!
0/!
0*!
0q
1[
1t
0Z
0L
1K
1q
0[
1\
05
14
0\
#390000
0%
0C
0X
0Y
#400000
1%
1C
1X
1Y
1"!
1u
00!
0+!
0t
1Z
1L
0q
1[
15
1\
#410000
0%
0C
0X
0Y
#420000
1%
1C
1X
1Y
1`
1~
0!!
0r
0"!
0u
10!
1+!
1/!
1*!
0)!
0.!
0\
1n
1q
0[
1t
0Z
0L
0K
1J
0q
1\
0n
1o
05
04
13
0o
#430000
0%
0C
0X
0Y
#440000
1%
1C
1X
1Y
1"!
1u
00!
0+!
0t
1Z
1L
1q
15
#450000
0%
0C
0X
0Y
#460000
1%
1C
1X
1Y
1!!
1r
0"!
0u
10!
1+!
0/!
0*!
0q
1[
1t
0Z
0L
1K
1q
0[
0\
1n
05
14
1o
1\
0n
0o
#470000
0%
0C
0X
0Y
#480000
1%
1C
1X
1Y
1"!
1u
00!
0+!
0t
1Z
1L
0q
1[
15
0\
1n
1o
#490000
0%
0C
0X
0Y
#500000
1%
1C
1X
1Y
0`
0~
1}
0!!
0r
0"!
0u
10!
1+!
1/!
1*!
0(!
1)!
1.!
1\
0n
0o
1]
1q
0[
1t
0Z
0L
0K
1I
0J
0q
0\
0^
1f
1o
0]
05
04
03
12
1^
0f
1g
0g
#510000
0%
0C
0X
0Y
#520000
1%
1C
1X
1Y
1"!
1u
00!
0+!
0t
1Z
1L
1q
15
#530000
0%
0C
0X
0Y
#540000
1%
1C
1X
1Y
1!!
1r
0"!
0u
10!
1+!
0/!
0*!
0q
1[
1t
0Z
0L
1K
1q
0[
1\
05
14
0\
#550000
0%
0C
0X
0Y
#560000
1%
1C
1X
1Y
1"!
1u
00!
0+!
0t
1Z
1L
0q
1[
15
1\
#570000
0%
0C
0X
0Y
#580000
1%
1C
1X
1Y
1`
1~
0!!
0r
0"!
0u
10!
1+!
1/!
1*!
0)!
0.!
0\
1n
1q
0[
1t
0Z
0L
0K
1J
0q
1\
0n
0o
1]
05
04
13
0^
1f
1o
0]
1^
0f
1g
0g
#590000
0%
0C
0X
0Y
#600000
1%
1C
1X
1Y
1"!
1u
00!
0+!
0t
1Z
1L
1q
15
#610000
0%
0C
0X
0Y
#620000
1%
1C
1X
1Y
1!!
1r
0"!
0u
10!
1+!
0/!
0*!
0q
1[
1t
0Z
0L
1K
1q
0[
0\
1n
05
14
0o
1]
1\
0n
1o
0]
0^
1f
1g
1^
0f
0g
#630000
0%
0C
0X
0Y
#640000
1%
1C
1X
1Y
1"!
1u
00!
0+!
0t
1Z
1L
0q
1[
15
0\
1n
0o
1]
0^
1f
1g
#650000
0%
0C
0X
0Y
#660000
1%
1C
1X
1Y
0`
0|
1{
0~
0}
0!!
0r
0"!
0u
10!
1+!
1/!
1*!
1(!
1)!
0&!
1'!
1.!
1^
0f
0g
1h
1\
0n
1o
0]
1q
0[
1t
0Z
0L
0K
0I
1G
0H
0J
0q
0\
0^
0o
1i
1g
0h
05
04
03
02
01
10
0i
#670000
0%
0C
0X
0Y
#680000
1%
1C
1X
1Y
1"!
1u
00!
0+!
0t
1Z
1L
1q
15
#690000
0%
0C
0X
0Y
#700000
1%
1C
1X
1Y
1!!
1r
0"!
0u
10!
1+!
0/!
0*!
0q
1[
1t
0Z
0L
1K
1q
0[
1\
05
14
0\
#710000
0%
0C
0X
0Y
#720000
1%
1C
1X
1Y
1"!
1u
00!
0+!
0t
1Z
1L
0q
1[
15
1\
#730000
0%
0C
0X
0Y
#740000
1%
1C
1X
1Y
1`
1~
0!!
0r
0"!
0u
10!
1+!
1/!
1*!
0)!
0.!
0\
1n
1q
0[
1t
0Z
0L
0K
1J
0q
1\
0n
1o
05
04
13
0o
#750000
0%
0C
0X
0Y
#760000
1%
1C
1X
1Y
1"!
1u
00!
0+!
0t
1Z
1L
1q
15
#770000
0%
0C
0X
0Y
#780000
1%
1C
1X
1Y
1!!
1r
0"!
0u
10!
1+!
0/!
0*!
0q
1[
1t
0Z
0L
1K
1q
0[
0\
1n
05
14
1o
1\
0n
0o
#790000
0%
0C
0X
0Y
#800000
1%
1C
1X
1Y
1"!
1u
00!
0+!
0t
1Z
1L
0q
1[
15
0\
1n
1o
#810000
0%
0C
0X
0Y
#820000
1%
1C
1X
1Y
0`
0~
1}
0!!
0r
0"!
0u
10!
1+!
1/!
1*!
0(!
1)!
1.!
1\
0n
0o
1]
1q
0[
1t
0Z
0L
0K
1I
0J
0q
0\
1^
1o
0]
05
04
03
12
0^
#830000
0%
0C
0X
0Y
#840000
1%
1C
1X
1Y
1"!
1u
00!
0+!
0t
1Z
1L
1q
15
#850000
0%
0C
0X
0Y
#860000
1%
1C
1X
1Y
1!!
1r
0"!
0u
10!
1+!
0/!
0*!
0q
1[
1t
0Z
0L
1K
1q
0[
1\
05
14
0\
#870000
0%
0C
0X
0Y
#880000
1%
1C
1X
1Y
1"!
1u
00!
0+!
0t
1Z
1L
0q
1[
15
1\
#890000
0%
0C
0X
0Y
#900000
1%
1C
1X
1Y
1`
1~
0!!
0r
0"!
0u
10!
1+!
1/!
1*!
0)!
0.!
0\
1n
1q
0[
1t
0Z
0L
0K
1J
0q
1\
0n
0o
1]
05
04
13
1^
1o
0]
0^
#910000
0%
0C
0X
0Y
#920000
1%
1C
1X
1Y
1"!
1u
00!
0+!
0t
1Z
1L
1q
15
#930000
0%
0C
0X
0Y
#940000
1%
1C
1X
1Y
1!!
1r
0"!
0u
10!
1+!
0/!
0*!
0q
1[
1t
0Z
0L
1K
1q
0[
0\
1n
05
14
0o
1]
1\
0n
1o
0]
1^
0^
#950000
0%
0C
0X
0Y
#960000
1%
1C
1X
1Y
1"!
1u
00!
0+!
0t
1Z
1L
0q
1[
15
0\
1n
0o
1]
1^
#970000
0%
0C
0X
0Y
#980000
1%
1C
1X
1Y
0`
1|
0~
0}
0!!
0r
0"!
0u
10!
1+!
1/!
1*!
1(!
1)!
0'!
1.!
0^
1f
1\
0n
1o
0]
1q
0[
1t
0Z
0L
0K
0I
1H
0J
0q
0\
1^
0f
0o
0g
1h
05
04
03
02
11
1i
1g
0h
0i
#990000
0%
0C
0X
0Y
