processors/class05_Jump/class05_activity01/simulation/qsim/class05_activity01.msim.vcd
$comment
	File created using the following command:
		vcd file class05_activity01.msim.vcd -direction
$end
$date
	Mon Oct 09 14:15:49 2023
$end
$version
	ModelSim Version 2020.1
$end
$timescale
	1ps
$end

$scope module toplevel_vhd_vec_tst $end
$var wire 1 ! CLOCK_50 $end
$var wire 1 " EntradaB_ULA [7] $end
$var wire 1 # EntradaB_ULA [6] $end
$var wire 1 $ EntradaB_ULA [5] $end
$var wire 1 % EntradaB_ULA [4] $end
$var wire 1 & EntradaB_ULA [3] $end
$var wire 1 ' EntradaB_ULA [2] $end
$var wire 1 ( EntradaB_ULA [1] $end
$var wire 1 ) EntradaB_ULA [0] $end
$var wire 1 * KEY [3] $end
$var wire 1 + KEY [2] $end
$var wire 1 , KEY [1] $end
$var wire 1 - KEY [0] $end
$var wire 1 . LEDR [9] $end
$var wire 1 / LEDR [8] $end
$var wire 1 0 LEDR [7] $end
$var wire 1 1 LEDR [6] $end
$var wire 1 2 LEDR [5] $end
$var wire 1 3 LEDR [4] $end
$var wire 1 4 LEDR [3] $end
$var wire 1 5 LEDR [2] $end
$var wire 1 6 LEDR [1] $end
$var wire 1 7 LEDR [0] $end
$var wire 1 8 Palavra_Controle [6] $end
$var wire 1 9 Palavra_Controle [5] $end
$var wire 1 : Palavra_Controle [4] $end
$var wire 1 ; Palavra_Controle [3] $end
$var wire 1 < Palavra_Controle [2] $end
$var wire 1 = Palavra_Controle [1] $end
$var wire 1 > Palavra_Controle [0] $end
$var wire 1 ? PC_OUT [8] $end
$var wire 1 @ PC_OUT [7] $end
$var wire 1 A PC_OUT [6] $end
$var wire 1 B PC_OUT [5] $end
$var wire 1 C PC_OUT [4] $end
$var wire 1 D PC_OUT [3] $end
$var wire 1 E PC_OUT [2] $end
$var wire 1 F PC_OUT [1] $end
$var wire 1 G PC_OUT [0] $end

$scope module i1 $end
$var wire 1 H gnd $end
$var wire 1 I vcc $end
$var wire 1 J unknown $end
$var wire 1 K devoe $end
$var wire 1 L devclrn $end
$var wire 1 M devpor $end
$var wire 1 N ww_devoe $end
$var wire 1 O ww_devclrn $end
$var wire 1 P ww_devpor $end
$var wire 1 Q ww_CLOCK_50 $end
$var wire 1 R ww_KEY [3] $end
$var wire 1 S ww_KEY [2] $end
$var wire 1 T ww_KEY [1] $end
$var wire 1 U ww_KEY [0] $end
$var wire 1 V ww_PC_OUT [8] $end
$var wire 1 W ww_PC_OUT [7] $end
$var wire 1 X ww_PC_OUT [6] $end
$var wire 1 Y ww_PC_OUT [5] $end
$var wire 1 Z ww_PC_OUT [4] $end
$var wire 1 [ ww_PC_OUT [3] $end
$var wire 1 \ ww_PC_OUT [2] $end
$var wire 1 ] ww_PC_OUT [1] $end
$var wire 1 ^ ww_PC_OUT [0] $end
$var wire 1 _ ww_LEDR [9] $end
$var wire 1 ` ww_LEDR [8] $end
$var wire 1 a ww_LEDR [7] $end
$var wire 1 b ww_LEDR [6] $end
$var wire 1 c ww_LEDR [5] $end
$var wire 1 d ww_LEDR [4] $end
$var wire 1 e ww_LEDR [3] $end
$var wire 1 f ww_LEDR [2] $end
$var wire 1 g ww_LEDR [1] $end
$var wire 1 h ww_LEDR [0] $end
$var wire 1 i ww_EntradaB_ULA [7] $end
$var wire 1 j ww_EntradaB_ULA [6] $end
$var wire 1 k ww_EntradaB_ULA [5] $end
$var wire 1 l ww_EntradaB_ULA [4] $end
$var wire 1 m ww_EntradaB_ULA [3] $end
$var wire 1 n ww_EntradaB_ULA [2] $end
$var wire 1 o ww_EntradaB_ULA [1] $end
$var wire 1 p ww_EntradaB_ULA [0] $end
$var wire 1 q ww_Palavra_Controle [6] $end
$var wire 1 r ww_Palavra_Controle [5] $end
$var wire 1 s ww_Palavra_Controle [4] $end
$var wire 1 t ww_Palavra_Controle [3] $end
$var wire 1 u ww_Palavra_Controle [2] $end
$var wire 1 v ww_Palavra_Controle [1] $end
$var wire 1 w ww_Palavra_Controle [0] $end
$var wire 1 x \CLOCK_50~input_o\ $end
$var wire 1 y \KEY[1]~input_o\ $end
$var wire 1 z \KEY[2]~input_o\ $end
$var wire 1 { \KEY[3]~input_o\ $end
$var wire 1 | \KEY[0]~input_o\ $end
$var wire 1 } \KEY[0]~inputCLKENA0_outclk\ $end
$var wire 1 ~ \incrementaPC|Add0~2\ $end
$var wire 1 !! \incrementaPC|Add0~5_sumout\ $end
$var wire 1 "! \incrementaPC|Add0~6\ $end
$var wire 1 #! \incrementaPC|Add0~9_sumout\ $end
$var wire 1 $! \incrementaPC|Add0~14\ $end
$var wire 1 %! \incrementaPC|Add0~17_sumout\ $end
$var wire 1 &! \~GND~combout\ $end
$var wire 1 '! \incrementaPC|Add0~18\ $end
$var wire 1 (! \incrementaPC|Add0~21_sumout\ $end
$var wire 1 )! \PC|DOUT[5]~DUPLICATE_q\ $end
$var wire 1 *! \incrementaPC|Add0~22\ $end
$var wire 1 +! \incrementaPC|Add0~25_sumout\ $end
$var wire 1 ,! \incrementaPC|Add0~26\ $end
$var wire 1 -! \incrementaPC|Add0~29_sumout\ $end
$var wire 1 .! \incrementaPC|Add0~30\ $end
$var wire 1 /! \incrementaPC|Add0~33_sumout\ $end
$var wire 1 0! \PC|DOUT[8]~DUPLICATE_q\ $end
$var wire 1 1! \ROM|memROM~0_combout\ $end
$var wire 1 2! \ROM|memROM~5_combout\ $end
$var wire 1 3! \ROM|memROM~6_combout\ $end
$var wire 1 4! \ROM|memROM~1_combout\ $end
$var wire 1 5! \PC|DOUT[2]~DUPLICATE_q\ $end
$var wire 1 6! \ROM|memROM~4_combout\ $end
$var wire 1 7! \incrementaPC|Add0~10\ $end
$var wire 1 8! \incrementaPC|Add0~13_sumout\ $end
$var wire 1 9! \ROM|memROM~3_combout\ $end
$var wire 1 :! \ROM|memROM~2_combout\ $end
$var wire 1 ;! \incrementaPC|Add0~1_sumout\ $end
$var wire 1 <! \PC|DOUT[0]~DUPLICATE_q\ $end
$var wire 1 =! \PC|DOUT[4]~DUPLICATE_q\ $end
$var wire 1 >! \PC|DOUT\ [8] $end
$var wire 1 ?! \PC|DOUT\ [7] $end
$var wire 1 @! \PC|DOUT\ [6] $end
$var wire 1 A! \PC|DOUT\ [5] $end
$var wire 1 B! \PC|DOUT\ [4] $end
$var wire 1 C! \PC|DOUT\ [3] $end
$var wire 1 D! \PC|DOUT\ [2] $end
$var wire 1 E! \PC|DOUT\ [1] $end
$var wire 1 F! \PC|DOUT\ [0] $end
$var wire 1 G! \PC|ALT_INV_DOUT[8]~DUPLICATE_q\ $end
$var wire 1 H! \PC|ALT_INV_DOUT[5]~DUPLICATE_q\ $end
$var wire 1 I! \PC|ALT_INV_DOUT[2]~DUPLICATE_q\ $end
$var wire 1 J! \PC|ALT_INV_DOUT[0]~DUPLICATE_q\ $end
$var wire 1 K! \ROM|ALT_INV_memROM~6_combout\ $end
$var wire 1 L! \ROM|ALT_INV_memROM~0_combout\ $end
$var wire 1 M! \PC|ALT_INV_DOUT\ [8] $end
$var wire 1 N! \PC|ALT_INV_DOUT\ [7] $end
$var wire 1 O! \PC|ALT_INV_DOUT\ [6] $end
$var wire 1 P! \PC|ALT_INV_DOUT\ [5] $end
$var wire 1 Q! \PC|ALT_INV_DOUT\ [4] $end
$var wire 1 R! \PC|ALT_INV_DOUT\ [3] $end
$var wire 1 S! \PC|ALT_INV_DOUT\ [2] $end
$var wire 1 T! \PC|ALT_INV_DOUT\ [1] $end
$var wire 1 U! \PC|ALT_INV_DOUT\ [0] $end
$upscope $end
$upscope $end
$enddefinitions $end
#0
$dumpvars
x!
0H
1I
xJ
1K
1L
1M
1N
1O
1P
xQ
xx
xy
xz
x{
1|
1}
0~
0!!
0"!
0#!
0$!
0%!
0&!
0'!
0(!
0)!
0*!
0+!
0,!
0-!
0.!
0/!
00!
11!
02!
13!
14!
05!
16!
07!
08!
09!
0:!
1;!
0<!
0=!
1G!
1H!
1I!
1J!
0K!
0L!
x*
x+
x,
1-
xR
xS
xT
1U
0V
0W
0X
0Y
0Z
0[
0\
0]
0^
0_
0`
0a
0b
0c
0d
0e
0f
0g
0h
0i
0j
0k
0l
0m
0n
0o
0p
1q
0r
0s
0t
0u
0v
0w
0>!
0?!
0@!
0A!
0B!
0C!
0D!
0E!
0F!
1M!
1N!
1O!
1P!
1Q!
1R!
1S!
1T!
1U!
0"
0#
0$
0%
0&
0'
0(
0)
0.
0/
00
01
02
03
04
05
06
07
18
09
0:
0;
0<
0=
0>
0?
0@
0A
0B
0C
0D
0E
0F
0G
$end
#10000
0-
0U
0|
0}
#20000
1-
1U
1|
1}
15!
1D!
0S!
0I!
12!
06!
1:!
1#!
1\
1E
#30000
0-
0U
0|
0}
#40000
1-
1U
1|
1}
10!
1>!
05!
0D!
1F!
1<!
0J!
0U!
1S!
1I!
0M!
0G!
01!
1/!
03!
0#!
0;!
1~
16!
1K!
1L!
1^
0\
1V
1!!
02!
06!
0:!
04!
1G
0E
1?
0q
08
#50000
0-
0U
0|
0}
#60000
1-
1U
1|
1}
1E!
0F!
0<!
1J!
1U!
0T!
0!!
1"!
1;!
0~
0^
1]
1!!
0"!
1#!
0G
1F
0#!
#70000
0-
0U
0|
0}
#80000
1-
1U
1|
1}
1F!
1<!
0J!
0U!
0;!
1~
1^
0!!
1"!
1G
1#!
#90000
0-
0U
0|
0}
#100000
1-
1U
1|
1}
15!
1D!
0E!
0F!
0<!
1J!
1U!
1T!
0S!
0I!
0#!
17!
1!!
0"!
1;!
0~
0^
0]
1\
0!!
1#!
07!
18!
0G
0F
1E
08!
#110000
0-
0U
0|
0}
#120000
1-
1U
1|
1}
1F!
1<!
0J!
0U!
0;!
1~
1^
1!!
1G
#130000
0-
0U
0|
0}
#140000
1-
1U
1|
1}
1E!
0F!
0<!
1J!
1U!
0T!
0!!
1"!
1;!
0~
0^
1]
1!!
0"!
0#!
17!
0G
1F
18!
1#!
07!
08!
#150000
0-
0U
0|
0}
#160000
1-
1U
1|
1}
1F!
1<!
0J!
0U!
0;!
1~
1^
0!!
1"!
1G
0#!
17!
18!
#170000
0-
0U
0|
0}
#180000
1-
1U
1|
1}
05!
0D!
1C!
0E!
0F!
0<!
1J!
1U!
1T!
0R!
1S!
1I!
1#!
07!
08!
1$!
1!!
0"!
1;!
0~
0^
0]
1[
0\
0!!
0#!
1%!
18!
0$!
0G
0F
0E
1D
0%!
#190000
0-
0U
0|
0}
#200000
1-
1U
1|
1}
1F!
1<!
0J!
0U!
0;!
1~
1^
1!!
1G
#210000
0-
0U
0|
0}
#220000
1-
1U
1|
1}
1E!
0F!
0<!
1J!
1U!
0T!
0!!
1"!
1;!
0~
0^
1]
1!!
0"!
1#!
0G
1F
0#!
#230000
0-
0U
0|
0}
#240000
1-
1U
1|
1}
1F!
1<!
0J!
0U!
0;!
1~
1^
0!!
1"!
1G
1#!
#250000
0-
0U
0|
0}
#260000
1-
1U
1|
1}
15!
1D!
0E!
0F!
0<!
1J!
1U!
1T!
0S!
0I!
0#!
17!
1!!
0"!
1;!
0~
0^
0]
1\
0!!
1#!
07!
08!
1$!
0G
0F
1E
1%!
18!
0$!
0%!
#270000
0-
0U
0|
0}
#280000
1-
1U
1|
1}
1F!
1<!
0J!
0U!
0;!
1~
1^
1!!
1G
#290000
0-
0U
0|
0}
#300000
1-
1U
1|
1}
1E!
0F!
0<!
1J!
1U!
0T!
0!!
1"!
1;!
0~
0^
1]
1!!
0"!
0#!
17!
0G
1F
08!
1$!
1#!
07!
18!
0$!
1%!
0%!
#310000
0-
0U
0|
0}
#320000
1-
1U
1|
1}
1F!
1<!
0J!
0U!
0;!
1~
1^
0!!
1"!
1G
0#!
17!
08!
1$!
1%!
#330000
0-
0U
0|
0}
#340000
1-
1U
1|
1}
1B!
05!
0D!
0C!
0E!
0F!
0<!
1=!
1J!
1U!
1T!
1R!
1S!
1I!
0Q!
0%!
1'!
1#!
07!
18!
0$!
1!!
0"!
1;!
0~
1Z
0^
0]
0[
0\
0!!
0#!
1%!
0'!
08!
1(!
0G
0F
0E
0D
1C
0(!
#350000
0-
0U
0|
0}
#360000
1-
1U
1|
1}
1F!
1<!
0J!
0U!
0;!
1~
1^
1!!
1G
#370000
0-
0U
0|
0}
#380000
1-
1U
1|
1}
1E!
0F!
0<!
1J!
1U!
0T!
0!!
1"!
1;!
0~
0^
1]
1!!
0"!
1#!
0G
1F
0#!
#390000
0-
0U
0|
0}
#400000
1-
1U
1|
1}
1F!
1<!
0J!
0U!
0;!
1~
1^
0!!
1"!
1G
1#!
#410000
0-
0U
0|
0}
#420000
1-
1U
1|
1}
15!
1D!
0E!
0F!
0<!
1J!
1U!
1T!
0S!
0I!
0#!
17!
1!!
0"!
1;!
0~
0^
0]
1\
0!!
1#!
07!
18!
0G
0F
1E
08!
#430000
0-
0U
0|
0}
#440000
1-
1U
1|
1}
1F!
1<!
0J!
0U!
0;!
1~
1^
1!!
1G
#450000
0-
0U
0|
0}
#460000
1-
1U
1|
1}
1E!
0F!
0<!
1J!
1U!
0T!
0!!
1"!
1;!
0~
0^
1]
1!!
0"!
0#!
17!
0G
1F
18!
1#!
07!
08!
#470000
0-
0U
0|
0}
#480000
1-
1U
1|
1}
1F!
1<!
0J!
0U!
0;!
1~
1^
0!!
1"!
1G
0#!
17!
18!
#490000
0-
0U
0|
0}
#500000
1-
1U
1|
1}
05!
0D!
1C!
0E!
0F!
0<!
1J!
1U!
1T!
0R!
1S!
1I!
1#!
07!
08!
1$!
1!!
0"!
1;!
0~
0^
0]
1[
0\
0!!
0#!
0%!
1'!
18!
0$!
0G
0F
0E
1D
1%!
0'!
1(!
0(!
#510000
0-
0U
0|
0}
#520000
1-
1U
1|
1}
1F!
1<!
0J!
0U!
0;!
1~
1^
1!!
1G
#530000
0-
0U
0|
0}
#540000
1-
1U
1|
1}
1E!
0F!
0<!
1J!
1U!
0T!
0!!
1"!
1;!
0~
0^
1]
1!!
0"!
1#!
0G
1F
0#!
#550000
0-
0U
0|
0}
#560000
1-
1U
1|
1}
1F!
1<!
0J!
0U!
0;!
1~
1^
0!!
1"!
1G
1#!
#570000
0-
0U
0|
0}
#580000
1-
1U
1|
1}
15!
1D!
0E!
0F!
0<!
1J!
1U!
1T!
0S!
0I!
0#!
17!
1!!
0"!
1;!
0~
0^
0]
1\
0!!
1#!
07!
08!
1$!
0G
0F
1E
0%!
1'!
18!
0$!
1%!
0'!
1(!
0(!
#590000
0-
0U
0|
0}
#600000
1-
1U
1|
1}
1F!
1<!
0J!
0U!
0;!
1~
1^
1!!
1G
#610000
0-
0U
0|
0}
#620000
1-
1U
1|
1}
1E!
0F!
0<!
1J!
1U!
0T!
0!!
1"!
1;!
0~
0^
1]
1!!
0"!
0#!
17!
0G
1F
08!
1$!
1#!
07!
18!
0$!
0%!
1'!
1(!
1%!
0'!
0(!
#630000
0-
0U
0|
0}
#640000
1-
1U
1|
1}
1F!
1<!
0J!
0U!
0;!
1~
1^
0!!
1"!
1G
0#!
17!
08!
1$!
0%!
1'!
1(!
#650000
0-
0U
0|
0}
#660000
1-
1U
1|
1}
0B!
1A!
1)!
05!
0D!
0C!
0E!
0F!
0<!
0=!
1J!
1U!
1T!
1R!
1S!
1I!
0H!
0P!
1Q!
1%!
0'!
0(!
1*!
1#!
07!
18!
0$!
1!!
0"!
1;!
0~
0Z
0^
0]
0[
0\
1Y
0!!
0#!
0%!
08!
1+!
1(!
0*!
0G
0F
0E
0D
0C
1B
0+!
#670000
0-
0U
0|
0}
#680000
1-
1U
1|
1}
1F!
1<!
0J!
0U!
0;!
1~
1^
1!!
1G
#690000
0-
0U
0|
0}
#700000
1-
1U
1|
1}
1E!
0F!
0<!
1J!
1U!
0T!
0!!
1"!
1;!
0~
0^
1]
1!!
0"!
1#!
0G
1F
0#!
#710000
0-
0U
0|
0}
#720000
1-
1U
1|
1}
1F!
1<!
0J!
0U!
0;!
1~
1^
0!!
1"!
1G
1#!
#730000
0-
0U
0|
0}
#740000
1-
1U
1|
1}
15!
1D!
0E!
0F!
0<!
1J!
1U!
1T!
0S!
0I!
0#!
17!
1!!
0"!
1;!
0~
0^
0]
1\
0!!
1#!
07!
18!
0G
0F
1E
08!
#750000
0-
0U
0|
0}
#760000
1-
1U
1|
1}
1F!
1<!
0J!
0U!
0;!
1~
1^
1!!
1G
#770000
0-
0U
0|
0}
#780000
1-
1U
1|
1}
1E!
0F!
0<!
1J!
1U!
0T!
0!!
1"!
1;!
0~
0^
1]
1!!
0"!
0#!
17!
0G
1F
18!
1#!
07!
08!
#790000
0-
0U
0|
0}
#800000
1-
1U
1|
1}
1F!
1<!
0J!
0U!
0;!
1~
1^
0!!
1"!
1G
0#!
17!
18!
#810000
0-
0U
0|
0}
#820000
1-
1U
1|
1}
05!
0D!
1C!
0E!
0F!
0<!
1J!
1U!
1T!
0R!
1S!
1I!
1#!
07!
08!
1$!
1!!
0"!
1;!
0~
0^
0]
1[
0\
0!!
0#!
1%!
18!
0$!
0G
0F
0E
1D
0%!
#830000
0-
0U
0|
0}
#840000
1-
1U
1|
1}
1F!
1<!
0J!
0U!
0;!
1~
1^
1!!
1G
#850000
0-
0U
0|
0}
#860000
1-
1U
1|
1}
1E!
0F!
0<!
1J!
1U!
0T!
0!!
1"!
1;!
0~
0^
1]
1!!
0"!
1#!
0G
1F
0#!
#870000
0-
0U
0|
0}
#880000
1-
1U
1|
1}
1F!
1<!
0J!
0U!
0;!
1~
1^
0!!
1"!
1G
1#!
#890000
0-
0U
0|
0}
#900000
1-
1U
1|
1}
15!
1D!
0E!
0F!
0<!
1J!
1U!
1T!
0S!
0I!
0#!
17!
1!!
0"!
1;!
0~
0^
0]
1\
0!!
1#!
07!
08!
1$!
0G
0F
1E
1%!
18!
0$!
0%!
#910000
0-
0U
0|
0}
#920000
1-
1U
1|
1}
1F!
1<!
0J!
0U!
0;!
1~
1^
1!!
1G
#930000
0-
0U
0|
0}
#940000
1-
1U
1|
1}
1E!
0F!
0<!
1J!
1U!
0T!
0!!
1"!
1;!
0~
0^
1]
1!!
0"!
0#!
17!
0G
1F
08!
1$!
1#!
07!
18!
0$!
1%!
0%!
#950000
0-
0U
0|
0}
#960000
1-
1U
1|
1}
1F!
1<!
0J!
0U!
0;!
1~
1^
0!!
1"!
1G
0#!
17!
08!
1$!
1%!
#970000
0-
0U
0|
0}
#980000
1-
1U
1|
1}
1B!
05!
0D!
0C!
0E!
0F!
0<!
1=!
1J!
1U!
1T!
1R!
1S!
1I!
0Q!
0%!
1'!
1#!
07!
18!
0$!
1!!
0"!
1;!
0~
1Z
0^
0]
0[
0\
0!!
0#!
1%!
0'!
08!
0(!
1*!
0G
0F
0E
0D
1C
1+!
1(!
0*!
0+!
#990000
0-
0U
0|
0}
